-- Merging decision tree log ---
manifest
ADDED from /home/ehofmann/hacker/junction2018/resources/samples/VehicleAPIDemo/app/src/main/AndroidManifest.xml:2:1-70:12
	package
		ADDED from /home/ehofmann/hacker/junction2018/resources/samples/VehicleAPIDemo/app/src/main/AndroidManifest.xml:4:5-46
		INJECTED from /home/ehofmann/hacker/junction2018/resources/samples/VehicleAPIDemo/app/src/main/AndroidManifest.xml
		INJECTED from /home/ehofmann/hacker/junction2018/resources/samples/VehicleAPIDemo/app/src/main/AndroidManifest.xml
	android:sharedUserId
		ADDED from /home/ehofmann/hacker/junction2018/resources/samples/VehicleAPIDemo/app/src/main/AndroidManifest.xml:5:5-64
	android:versionName
		ADDED from /home/ehofmann/hacker/junction2018/resources/samples/VehicleAPIDemo/app/src/main/AndroidManifest.xml:7:5-45
		INJECTED from /home/ehofmann/hacker/junction2018/resources/samples/VehicleAPIDemo/app/src/main/AndroidManifest.xml
		INJECTED from /home/ehofmann/hacker/junction2018/resources/samples/VehicleAPIDemo/app/src/main/AndroidManifest.xml
	xmlns:tools
		ADDED from /home/ehofmann/hacker/junction2018/resources/samples/VehicleAPIDemo/app/src/main/AndroidManifest.xml:3:5-51
	android:versionCode
		ADDED from /home/ehofmann/hacker/junction2018/resources/samples/VehicleAPIDemo/app/src/main/AndroidManifest.xml:6:5-28
		INJECTED from /home/ehofmann/hacker/junction2018/resources/samples/VehicleAPIDemo/app/src/main/AndroidManifest.xml
		INJECTED from /home/ehofmann/hacker/junction2018/resources/samples/VehicleAPIDemo/app/src/main/AndroidManifest.xml
	xmlns:android
		ADDED from /home/ehofmann/hacker/junction2018/resources/samples/VehicleAPIDemo/app/src/main/AndroidManifest.xml:2:11-69
uses-sdk
ADDED from /home/ehofmann/hacker/junction2018/resources/samples/VehicleAPIDemo/app/src/main/AndroidManifest.xml:9:5-12:39
	android:targetSdkVersion
		ADDED from /home/ehofmann/hacker/junction2018/resources/samples/VehicleAPIDemo/app/src/main/AndroidManifest.xml:11:9-38
		INJECTED from /home/ehofmann/hacker/junction2018/resources/samples/VehicleAPIDemo/app/src/main/AndroidManifest.xml
		INJECTED from /home/ehofmann/hacker/junction2018/resources/samples/VehicleAPIDemo/app/src/main/AndroidManifest.xml
	tools:ignore
		ADDED from /home/ehofmann/hacker/junction2018/resources/samples/VehicleAPIDemo/app/src/main/AndroidManifest.xml:12:9-36
	android:minSdkVersion
		ADDED from /home/ehofmann/hacker/junction2018/resources/samples/VehicleAPIDemo/app/src/main/AndroidManifest.xml:10:9-35
		INJECTED from /home/ehofmann/hacker/junction2018/resources/samples/VehicleAPIDemo/app/src/main/AndroidManifest.xml
		INJECTED from /home/ehofmann/hacker/junction2018/resources/samples/VehicleAPIDemo/app/src/main/AndroidManifest.xml
application
ADDED from /home/ehofmann/hacker/junction2018/resources/samples/VehicleAPIDemo/app/src/main/AndroidManifest.xml:14:5-68:19
	android:label
		ADDED from /home/ehofmann/hacker/junction2018/resources/samples/VehicleAPIDemo/app/src/main/AndroidManifest.xml:17:9-40
	android:allowBackup
		ADDED from /home/ehofmann/hacker/junction2018/resources/samples/VehicleAPIDemo/app/src/main/AndroidManifest.xml:15:9-35
	android:icon
		ADDED from /home/ehofmann/hacker/junction2018/resources/samples/VehicleAPIDemo/app/src/main/AndroidManifest.xml:16:9-45
	android:theme
		ADDED from /home/ehofmann/hacker/junction2018/resources/samples/VehicleAPIDemo/app/src/main/AndroidManifest.xml:18:9-58
activity#com.fleetboard.sdk.demo.vehicle.MainActivity
ADDED from /home/ehofmann/hacker/junction2018/resources/samples/VehicleAPIDemo/app/src/main/AndroidManifest.xml:19:9-27:20
	android:label
		ADDED from /home/ehofmann/hacker/junction2018/resources/samples/VehicleAPIDemo/app/src/main/AndroidManifest.xml:21:13-44
	android:name
		ADDED from /home/ehofmann/hacker/junction2018/resources/samples/VehicleAPIDemo/app/src/main/AndroidManifest.xml:20:13-41
intent-filter#android.intent.action.MAIN+android.intent.category.LAUNCHER
ADDED from /home/ehofmann/hacker/junction2018/resources/samples/VehicleAPIDemo/app/src/main/AndroidManifest.xml:22:13-26:29
action#android.intent.action.MAIN
ADDED from /home/ehofmann/hacker/junction2018/resources/samples/VehicleAPIDemo/app/src/main/AndroidManifest.xml:23:17-69
	android:name
		ADDED from /home/ehofmann/hacker/junction2018/resources/samples/VehicleAPIDemo/app/src/main/AndroidManifest.xml:23:25-66
category#android.intent.category.LAUNCHER
ADDED from /home/ehofmann/hacker/junction2018/resources/samples/VehicleAPIDemo/app/src/main/AndroidManifest.xml:25:17-77
	android:name
		ADDED from /home/ehofmann/hacker/junction2018/resources/samples/VehicleAPIDemo/app/src/main/AndroidManifest.xml:25:27-74
activity#com.fleetboard.sdk.demo.vehicle.VehicleDemoActivity
ADDED from /home/ehofmann/hacker/junction2018/resources/samples/VehicleAPIDemo/app/src/main/AndroidManifest.xml:28:9-33:20
	android:label
		ADDED from /home/ehofmann/hacker/junction2018/resources/samples/VehicleAPIDemo/app/src/main/AndroidManifest.xml:31:13-57
	android:parentActivityName
		ADDED from /home/ehofmann/hacker/junction2018/resources/samples/VehicleAPIDemo/app/src/main/AndroidManifest.xml:32:13-55
	android:configChanges
		ADDED from /home/ehofmann/hacker/junction2018/resources/samples/VehicleAPIDemo/app/src/main/AndroidManifest.xml:30:13-43
	android:name
		ADDED from /home/ehofmann/hacker/junction2018/resources/samples/VehicleAPIDemo/app/src/main/AndroidManifest.xml:29:13-48
provider#android.support.v4.content.FileProvider
ADDED from /home/ehofmann/hacker/junction2018/resources/samples/VehicleAPIDemo/app/src/main/AndroidManifest.xml:35:9-43:20
	android:authorities
		ADDED from /home/ehofmann/hacker/junction2018/resources/samples/VehicleAPIDemo/app/src/main/AndroidManifest.xml:37:13-76
		INJECTED from /home/ehofmann/hacker/junction2018/resources/samples/VehicleAPIDemo/app/src/main/AndroidManifest.xml
	android:grantUriPermissions
		ADDED from /home/ehofmann/hacker/junction2018/resources/samples/VehicleAPIDemo/app/src/main/AndroidManifest.xml:38:13-47
	android:exported
		ADDED from /home/ehofmann/hacker/junction2018/resources/samples/VehicleAPIDemo/app/src/main/AndroidManifest.xml:39:13-37
	android:name
		ADDED from /home/ehofmann/hacker/junction2018/resources/samples/VehicleAPIDemo/app/src/main/AndroidManifest.xml:36:13-67
meta-data#android.support.FILE_PROVIDER_PATHS
ADDED from /home/ehofmann/hacker/junction2018/resources/samples/VehicleAPIDemo/app/src/main/AndroidManifest.xml:40:13-42:61
	android:resource
		ADDED from /home/ehofmann/hacker/junction2018/resources/samples/VehicleAPIDemo/app/src/main/AndroidManifest.xml:42:17-58
	android:name
		ADDED from /home/ehofmann/hacker/junction2018/resources/samples/VehicleAPIDemo/app/src/main/AndroidManifest.xml:41:17-67
service#com.fleetboard.sdk.lib.android.log.FileLogIntentService
ADDED from /home/ehofmann/hacker/junction2018/resources/samples/VehicleAPIDemo/app/src/main/AndroidManifest.xml:45:9-67:19
	android:exported
		ADDED from /home/ehofmann/hacker/junction2018/resources/samples/VehicleAPIDemo/app/src/main/AndroidManifest.xml:47:13-36
	android:permission
		ADDED from /home/ehofmann/hacker/junction2018/resources/samples/VehicleAPIDemo/app/src/main/AndroidManifest.xml:48:13-80
	android:name
		ADDED from /home/ehofmann/hacker/junction2018/resources/samples/VehicleAPIDemo/app/src/main/AndroidManifest.xml:46:13-83
intent-filter#android.intent.category.DEFAULT+com.fleetboard.sdk.action.log.START
ADDED from /home/ehofmann/hacker/junction2018/resources/samples/VehicleAPIDemo/app/src/main/AndroidManifest.xml:49:13-53:29
action#com.fleetboard.sdk.action.log.START
ADDED from /home/ehofmann/hacker/junction2018/resources/samples/VehicleAPIDemo/app/src/main/AndroidManifest.xml:50:17-78
	android:name
		ADDED from /home/ehofmann/hacker/junction2018/resources/samples/VehicleAPIDemo/app/src/main/AndroidManifest.xml:50:25-75
category#android.intent.category.DEFAULT
ADDED from /home/ehofmann/hacker/junction2018/resources/samples/VehicleAPIDemo/app/src/main/AndroidManifest.xml:52:17-76
	android:name
		ADDED from /home/ehofmann/hacker/junction2018/resources/samples/VehicleAPIDemo/app/src/main/AndroidManifest.xml:52:27-73
intent-filter#android.intent.category.DEFAULT+android.intent.category.OPENABLE+com.fleetboard.sdk.action.log.UPLOAD
ADDED from /home/ehofmann/hacker/junction2018/resources/samples/VehicleAPIDemo/app/src/main/AndroidManifest.xml:54:13-61:29
action#com.fleetboard.sdk.action.log.UPLOAD
ADDED from /home/ehofmann/hacker/junction2018/resources/samples/VehicleAPIDemo/app/src/main/AndroidManifest.xml:55:17-79
	android:name
		ADDED from /home/ehofmann/hacker/junction2018/resources/samples/VehicleAPIDemo/app/src/main/AndroidManifest.xml:55:25-76
category#android.intent.category.OPENABLE
ADDED from /home/ehofmann/hacker/junction2018/resources/samples/VehicleAPIDemo/app/src/main/AndroidManifest.xml:58:17-77
	android:name
		ADDED from /home/ehofmann/hacker/junction2018/resources/samples/VehicleAPIDemo/app/src/main/AndroidManifest.xml:58:27-74
data
ADDED from /home/ehofmann/hacker/junction2018/resources/samples/VehicleAPIDemo/app/src/main/AndroidManifest.xml:60:17-60
	android:mimeType
		ADDED from /home/ehofmann/hacker/junction2018/resources/samples/VehicleAPIDemo/app/src/main/AndroidManifest.xml:60:23-57
intent-filter#android.intent.category.DEFAULT+com.fleetboard.sdk.action.log.FILES_PROVIDED
ADDED from /home/ehofmann/hacker/junction2018/resources/samples/VehicleAPIDemo/app/src/main/AndroidManifest.xml:62:13-66:29
action#com.fleetboard.sdk.action.log.FILES_PROVIDED
ADDED from /home/ehofmann/hacker/junction2018/resources/samples/VehicleAPIDemo/app/src/main/AndroidManifest.xml:63:17-87
	android:name
		ADDED from /home/ehofmann/hacker/junction2018/resources/samples/VehicleAPIDemo/app/src/main/AndroidManifest.xml:63:25-84
